{
    "port" : 1337,
    "security": {
        "tokenLife" : 36000
    },
    "mongoose": {
        "uri2": "mongodb://localhost/test1",
        "uri": "mongodb://heroku:pwAtgzu5OpZlPlcJSALK_xFGLLQBrZKQErIwKR2maSG-f2LG3VlZnmpjf5_mYNRcFXUN34Of1CO5GwWMyJhpog@linus.mongohq.com:10090/app30272744"
    }
}